time1,fluo1,time2,fluo2,time3,fluo3
1,0,3,0,-11,0
3,0.007985825,5,0.004453426,13,0.055712669
5,0.022214693,7,0.02494437,21,0.339332329
7,0.043706547,9,0.035844274,26,0.598490709
9,0.052950945,11,0.103370321,32,0.703202852
10.5,0.077246969,13,0.173530781,36,0.900024999
12,0.190961549,15,0.250356857,38,0.96908014
15,0.23875997,17,0.325079432,41,0.982226528
17,0.279111931,19,0.441294757,43,0.923878277
19,0.334300692,23,0.345260935,45,0.995247718
21,0.38708738,46,1,47,1
23,0.437099416,64,0.557815552,50,0.966023311
24.5,0.474860738,,,52,0.987500749
55,1,,,55,0.934855995
,,,,56,0.982748372
,,,,59,0.993375142
,,,,62,0.951425703